RISC_Customized_ALU_Submission/Reg_Bank_and_ALU_Lab_Submission.sim/sim_1/behav/xsim/simulate.log
Time resolution is 1 ps
                   0reg[1]: 00000000000000000000000000000000, reg[2]: 00000000000000000000000000000000
                   0 Write_Reg: xxxxx, Read_Reg1: xxxxx, Read_Reg2: xxxxx, read_data1: xxxxxxxxxxxxxxxxxxxxxxxxxxxxxxxx, read_data2: xxxxxxxxxxxxxxxxxxxxxxxxxxxxxxxx, write: xxxxxxxxxxxxxxxxxxxxxxxxxxxxxxxx, move_sel = xx, ALU_Out: xxxxxxxxxxxxxxxxxxxxxxxxxxxxxxxx
                   6 Write_Reg: 00001, Read_Reg1: 00000, Read_Reg2: 00001, read_data1: xxxxxxxxxxxxxxxxxxxxxxxxxxxxxxxx, read_data2: xxxxxxxxxxxxxxxxxxxxxxxxxxxxxxxx, write: xxxxxxxxxxxxxxxxxxxxxxxxxxxxxxxx, move_sel = 01, ALU_Out: xxxxxxxxxxxxxxxxxxxxxxxxxxxxxxxx
                  30 Write_Reg: 00001, Read_Reg1: 00000, Read_Reg2: 00001, read_data1: 00000000000000000000000000000000, read_data2: 00000000000000000000000000000000, write: xxxxxxxxxxxxxxxxxxxxxxxxxxxxxxxx, move_sel = 01, ALU_Out: 00000000000000000000000000000000
                  36 Write_Reg: 00001, Read_Reg1: 00000, Read_Reg2: 00001, read_data1: 00000000000000000000000000000000, read_data2: 00000000000000000000000000000000, write: 00000000000000000000000000000001, move_sel = 01, ALU_Out: 00000000000000000000000000000000
                  51reg[1]: 00000000000000000000000000000001, reg[2]: 00000000000000000000000000000000
                  54 Write_Reg: 00010, Read_Reg1: 00001, Read_Reg2: 00010, read_data1: 00000000000000000000000000000000, read_data2: 00000000000000000000000000000000, write: 00000000000000000000000000000000, move_sel = 00, ALU_Out: 00000000000000000000000000000000
                  66 Write_Reg: 00010, Read_Reg1: 00001, Read_Reg2: 00010, read_data1: 00000000000000000000000000000001, read_data2: 00000000000000000000000000000000, write: 00000000000000000000000000000001, move_sel = 00, ALU_Out: 00000000000000000000000000000001
                  87reg[1]: 00000000000000000000000000000001, reg[2]: 00000000000000000000000000000001
                  90 Write_Reg: 00001, Read_Reg1: 00000, Read_Reg2: 00001, read_data1: 00000000000000000000000000000001, read_data2: 00000000000000000000000000000000, write: 00000000000000000000000000000001, move_sel = 01, ALU_Out: 00000000000000000000000000000010
                 102 Write_Reg: 00001, Read_Reg1: 00000, Read_Reg2: 00001, read_data1: 00000000000000000000000000000000, read_data2: 00000000000000000000000000000001, write: 00000000000000000000000000000001, move_sel = 01, ALU_Out: 00000000000000000000000000000001
                 108 Write_Reg: 00001, Read_Reg1: 00000, Read_Reg2: 00001, read_data1: 00000000000000000000000000000000, read_data2: 00000000000000000000000000000001, write: 00000000000000000000000000000010, move_sel = 01, ALU_Out: 00000000000000000000000000000001
                 123reg[1]: 00000000000000000000000000000010, reg[2]: 00000000000000000000000000000001
                 126 Write_Reg: 00010, Read_Reg1: 00001, Read_Reg2: 00010, read_data1: 00000000000000000000000000000000, read_data2: 00000000000000000000000000000001, write: 00000000000000000000000000000001, move_sel = 00, ALU_Out: 00000000000000000000000000000001
                 138 Write_Reg: 00010, Read_Reg1: 00001, Read_Reg2: 00010, read_data1: 00000000000000000000000000000010, read_data2: 00000000000000000000000000000001, write: 00000000000000000000000000000011, move_sel = 00, ALU_Out: 00000000000000000000000000000011
                 159reg[1]: 00000000000000000000000000000010, reg[2]: 00000000000000000000000000000011
                 162 Write_Reg: 00001, Read_Reg1: 00000, Read_Reg2: 00001, read_data1: 00000000000000000000000000000010, read_data2: 00000000000000000000000000000001, write: 00000000000000000000000000000010, move_sel = 01, ALU_Out: 00000000000000000000000000000100
                 174 Write_Reg: 00001, Read_Reg1: 00000, Read_Reg2: 00001, read_data1: 00000000000000000000000000000000, read_data2: 00000000000000000000000000000010, write: 00000000000000000000000000000010, move_sel = 01, ALU_Out: 00000000000000000000000000000010
                 180 Write_Reg: 00001, Read_Reg1: 00000, Read_Reg2: 00001, read_data1: 00000000000000000000000000000000, read_data2: 00000000000000000000000000000010, write: 00000000000000000000000000000011, move_sel = 01, ALU_Out: 00000000000000000000000000000010
                 195reg[1]: 00000000000000000000000000000011, reg[2]: 00000000000000000000000000000011
                 198 Write_Reg: 00010, Read_Reg1: 00001, Read_Reg2: 00010, read_data1: 00000000000000000000000000000000, read_data2: 00000000000000000000000000000010, write: 00000000000000000000000000000010, move_sel = 00, ALU_Out: 00000000000000000000000000000010
                 210 Write_Reg: 00010, Read_Reg1: 00001, Read_Reg2: 00010, read_data1: 00000000000000000000000000000011, read_data2: 00000000000000000000000000000011, write: 00000000000000000000000000000110, move_sel = 00, ALU_Out: 00000000000000000000000000000110
                 231reg[1]: 00000000000000000000000000000011, reg[2]: 00000000000000000000000000000110
                 234 Write_Reg: 00001, Read_Reg1: 00000, Read_Reg2: 00001, read_data1: 00000000000000000000000000000011, read_data2: 00000000000000000000000000000011, write: 00000000000000000000000000000011, move_sel = 01, ALU_Out: 00000000000000000000000000000110
                 246 Write_Reg: 00001, Read_Reg1: 00000, Read_Reg2: 00001, read_data1: 00000000000000000000000000000000, read_data2: 00000000000000000000000000000011, write: 00000000000000000000000000000011, move_sel = 01, ALU_Out: 00000000000000000000000000000011
                 252 Write_Reg: 00001, Read_Reg1: 00000, Read_Reg2: 00001, read_data1: 00000000000000000000000000000000, read_data2: 00000000000000000000000000000011, write: 00000000000000000000000000000100, move_sel = 01, ALU_Out: 00000000000000000000000000000011
                 267reg[1]: 00000000000000000000000000000100, reg[2]: 00000000000000000000000000000110
                 270 Write_Reg: 00010, Read_Reg1: 00001, Read_Reg2: 00010, read_data1: 00000000000000000000000000000000, read_data2: 00000000000000000000000000000011, write: 00000000000000000000000000000011, move_sel = 00, ALU_Out: 00000000000000000000000000000011
                 282 Write_Reg: 00010, Read_Reg1: 00001, Read_Reg2: 00010, read_data1: 00000000000000000000000000000100, read_data2: 00000000000000000000000000000110, write: 00000000000000000000000000001010, move_sel = 00, ALU_Out: 00000000000000000000000000001010
                 303reg[1]: 00000000000000000000000000000100, reg[2]: 00000000000000000000000000001010
                 306 Write_Reg: 00001, Read_Reg1: 00000, Read_Reg2: 00001, read_data1: 00000000000000000000000000000100, read_data2: 00000000000000000000000000000110, write: 00000000000000000000000000000100, move_sel = 01, ALU_Out: 00000000000000000000000000001000
                 318 Write_Reg: 00001, Read_Reg1: 00000, Read_Reg2: 00001, read_data1: 00000000000000000000000000000000, read_data2: 00000000000000000000000000000100, write: 00000000000000000000000000000100, move_sel = 01, ALU_Out: 00000000000000000000000000000100
                 324 Write_Reg: 00001, Read_Reg1: 00000, Read_Reg2: 00001, read_data1: 00000000000000000000000000000000, read_data2: 00000000000000000000000000000100, write: 00000000000000000000000000000101, move_sel = 01, ALU_Out: 00000000000000000000000000000100
                 339reg[1]: 00000000000000000000000000000101, reg[2]: 00000000000000000000000000001010
                 342 Write_Reg: 00010, Read_Reg1: 00001, Read_Reg2: 00010, read_data1: 00000000000000000000000000000000, read_data2: 00000000000000000000000000000100, write: 00000000000000000000000000000100, move_sel = 00, ALU_Out: 00000000000000000000000000000100
                 354 Write_Reg: 00010, Read_Reg1: 00001, Read_Reg2: 00010, read_data1: 00000000000000000000000000000101, read_data2: 00000000000000000000000000001010, write: 00000000000000000000000000001111, move_sel = 00, ALU_Out: 00000000000000000000000000001111
                 375reg[1]: 00000000000000000000000000000101, reg[2]: 00000000000000000000000000001111
                 378 Write_Reg: 00001, Read_Reg1: 00000, Read_Reg2: 00001, read_data1: 00000000000000000000000000000101, read_data2: 00000000000000000000000000001010, write: 00000000000000000000000000000101, move_sel = 01, ALU_Out: 00000000000000000000000000001010
                 390 Write_Reg: 00001, Read_Reg1: 00000, Read_Reg2: 00001, read_data1: 00000000000000000000000000000000, read_data2: 00000000000000000000000000000101, write: 00000000000000000000000000000101, move_sel = 01, ALU_Out: 00000000000000000000000000000101
                 396 Write_Reg: 00001, Read_Reg1: 00000, Read_Reg2: 00001, read_data1: 00000000000000000000000000000000, read_data2: 00000000000000000000000000000101, write: 00000000000000000000000000000110, move_sel = 01, ALU_Out: 00000000000000000000000000000101
                 411reg[1]: 00000000000000000000000000000110, reg[2]: 00000000000000000000000000001111
                 414 Write_Reg: 00010, Read_Reg1: 00001, Read_Reg2: 00010, read_data1: 00000000000000000000000000000000, read_data2: 00000000000000000000000000000101, write: 00000000000000000000000000000101, move_sel = 00, ALU_Out: 00000000000000000000000000000101
                 426 Write_Reg: 00010, Read_Reg1: 00001, Read_Reg2: 00010, read_data1: 00000000000000000000000000000110, read_data2: 00000000000000000000000000001111, write: 00000000000000000000000000010101, move_sel = 00, ALU_Out: 00000000000000000000000000010101
                 447reg[1]: 00000000000000000000000000000110, reg[2]: 00000000000000000000000000010101
                 450 Write_Reg: 00001, Read_Reg1: 00000, Read_Reg2: 00001, read_data1: 00000000000000000000000000000110, read_data2: 00000000000000000000000000001111, write: 00000000000000000000000000000110, move_sel = 01, ALU_Out: 00000000000000000000000000001100
                 462 Write_Reg: 00001, Read_Reg1: 00000, Read_Reg2: 00001, read_data1: 00000000000000000000000000000000, read_data2: 00000000000000000000000000000110, write: 00000000000000000000000000000110, move_sel = 01, ALU_Out: 00000000000000000000000000000110
                 468 Write_Reg: 00001, Read_Reg1: 00000, Read_Reg2: 00001, read_data1: 00000000000000000000000000000000, read_data2: 00000000000000000000000000000110, write: 00000000000000000000000000000111, move_sel = 01, ALU_Out: 00000000000000000000000000000110
                 483reg[1]: 00000000000000000000000000000111, reg[2]: 00000000000000000000000000010101
                 486 Write_Reg: 00010, Read_Reg1: 00001, Read_Reg2: 00010, read_data1: 00000000000000000000000000000000, read_data2: 00000000000000000000000000000110, write: 00000000000000000000000000000110, move_sel = 00, ALU_Out: 00000000000000000000000000000110
                 498 Write_Reg: 00010, Read_Reg1: 00001, Read_Reg2: 00010, read_data1: 00000000000000000000000000000111, read_data2: 00000000000000000000000000010101, write: 00000000000000000000000000011100, move_sel = 00, ALU_Out: 00000000000000000000000000011100
                 519reg[1]: 00000000000000000000000000000111, reg[2]: 00000000000000000000000000011100
                 522 Write_Reg: 00001, Read_Reg1: 00000, Read_Reg2: 00001, read_data1: 00000000000000000000000000000111, read_data2: 00000000000000000000000000010101, write: 00000000000000000000000000000111, move_sel = 01, ALU_Out: 00000000000000000000000000001110
                 534 Write_Reg: 00001, Read_Reg1: 00000, Read_Reg2: 00001, read_data1: 00000000000000000000000000000000, read_data2: 00000000000000000000000000000111, write: 00000000000000000000000000000111, move_sel = 01, ALU_Out: 00000000000000000000000000000111
                 540 Write_Reg: 00001, Read_Reg1: 00000, Read_Reg2: 00001, read_data1: 00000000000000000000000000000000, read_data2: 00000000000000000000000000000111, write: 00000000000000000000000000001000, move_sel = 01, ALU_Out: 00000000000000000000000000000111
                 555reg[1]: 00000000000000000000000000001000, reg[2]: 00000000000000000000000000011100
                 558 Write_Reg: 00010, Read_Reg1: 00001, Read_Reg2: 00010, read_data1: 00000000000000000000000000000000, read_data2: 00000000000000000000000000000111, write: 00000000000000000000000000000111, move_sel = 00, ALU_Out: 00000000000000000000000000000111
                 570 Write_Reg: 00010, Read_Reg1: 00001, Read_Reg2: 00010, read_data1: 00000000000000000000000000001000, read_data2: 00000000000000000000000000011100, write: 00000000000000000000000000100100, move_sel = 00, ALU_Out: 00000000000000000000000000100100
                 591reg[1]: 00000000000000000000000000001000, reg[2]: 00000000000000000000000000100100
                 594 Write_Reg: 00001, Read_Reg1: 00000, Read_Reg2: 00001, read_data1: 00000000000000000000000000001000, read_data2: 00000000000000000000000000011100, write: 00000000000000000000000000001000, move_sel = 01, ALU_Out: 00000000000000000000000000010000
                 606 Write_Reg: 00001, Read_Reg1: 00000, Read_Reg2: 00001, read_data1: 00000000000000000000000000000000, read_data2: 00000000000000000000000000001000, write: 00000000000000000000000000001000, move_sel = 01, ALU_Out: 00000000000000000000000000001000
                 612 Write_Reg: 00001, Read_Reg1: 00000, Read_Reg2: 00001, read_data1: 00000000000000000000000000000000, read_data2: 00000000000000000000000000001000, write: 00000000000000000000000000001001, move_sel = 01, ALU_Out: 00000000000000000000000000001000
                 627reg[1]: 00000000000000000000000000001001, reg[2]: 00000000000000000000000000100100
                 630 Write_Reg: 00010, Read_Reg1: 00001, Read_Reg2: 00010, read_data1: 00000000000000000000000000000000, read_data2: 00000000000000000000000000001000, write: 00000000000000000000000000001000, move_sel = 00, ALU_Out: 00000000000000000000000000001000
                 642 Write_Reg: 00010, Read_Reg1: 00001, Read_Reg2: 00010, read_data1: 00000000000000000000000000001001, read_data2: 00000000000000000000000000100100, write: 00000000000000000000000000101101, move_sel = 00, ALU_Out: 00000000000000000000000000101101
                 663reg[1]: 00000000000000000000000000001001, reg[2]: 00000000000000000000000000101101
                 666 Write_Reg: 00001, Read_Reg1: 00000, Read_Reg2: 00001, read_data1: 00000000000000000000000000001001, read_data2: 00000000000000000000000000100100, write: 00000000000000000000000000001001, move_sel = 01, ALU_Out: 00000000000000000000000000010010
                 678 Write_Reg: 00001, Read_Reg1: 00000, Read_Reg2: 00001, read_data1: 00000000000000000000000000000000, read_data2: 00000000000000000000000000001001, write: 00000000000000000000000000001001, move_sel = 01, ALU_Out: 00000000000000000000000000001001
                 684 Write_Reg: 00001, Read_Reg1: 00000, Read_Reg2: 00001, read_data1: 00000000000000000000000000000000, read_data2: 00000000000000000000000000001001, write: 00000000000000000000000000001010, move_sel = 01, ALU_Out: 00000000000000000000000000001001
                 699reg[1]: 00000000000000000000000000001010, reg[2]: 00000000000000000000000000101101
                 702 Write_Reg: 00010, Read_Reg1: 00001, Read_Reg2: 00010, read_data1: 00000000000000000000000000000000, read_data2: 00000000000000000000000000001001, write: 00000000000000000000000000001001, move_sel = 00, ALU_Out: 00000000000000000000000000001001
                 714 Write_Reg: 00010, Read_Reg1: 00001, Read_Reg2: 00010, read_data1: 00000000000000000000000000001010, read_data2: 00000000000000000000000000101101, write: 00000000000000000000000000110111, move_sel = 00, ALU_Out: 00000000000000000000000000110111
                 735reg[1]: 00000000000000000000000000001010, reg[2]: 00000000000000000000000000110111
                 738 Write_Reg: 00001, Read_Reg1: 00000, Read_Reg2: 00001, read_data1: 00000000000000000000000000001010, read_data2: 00000000000000000000000000101101, write: 00000000000000000000000000001010, move_sel = 01, ALU_Out: 00000000000000000000000000010100
                 750 Write_Reg: 00001, Read_Reg1: 00000, Read_Reg2: 00001, read_data1: 00000000000000000000000000000000, read_data2: 00000000000000000000000000001010, write: 00000000000000000000000000001010, move_sel = 01, ALU_Out: 00000000000000000000000000001010
                 756 Write_Reg: 00001, Read_Reg1: 00000, Read_Reg2: 00001, read_data1: 00000000000000000000000000000000, read_data2: 00000000000000000000000000001010, write: 00000000000000000000000000000000, move_sel = 01, ALU_Out: 00000000000000000000000000001010
                 771reg[1]: 00000000000000000000000000000000, reg[2]: 00000000000000000000000000110111
                 774 Write_Reg: 00010, Read_Reg1: 00001, Read_Reg2: 00010, read_data1: 00000000000000000000000000000000, read_data2: 00000000000000000000000000001010, write: 00000000000000000000000000001010, move_sel = 00, ALU_Out: 00000000000000000000000000001010
                 786 Write_Reg: 00010, Read_Reg1: 00001, Read_Reg2: 00010, read_data1: 00000000000000000000000000000000, read_data2: 00000000000000000000000000110111, write: 00000000000000000000000000110111, move_sel = 00, ALU_Out: 00000000000000000000000000110111
                 810 Write_Reg: xxxxx, Read_Reg1: xxxxx, Read_Reg2: xxxxx, read_data1: 00000000000000000000000000000000, read_data2: 00000000000000000000000000110111, write: xxxxxxxxxxxxxxxxxxxxxxxxxxxxxxxx, move_sel = xx, ALU_Out: xxxxxxxxxxxxxxxxxxxxxxxxxxxxxxxx
